<svg xmlns="http://www.w3.org/2000/svg" width="24" height="24" viewBox="0 0 24 24">
    <g fill="none" fill-rule="nonzero">
        <path fill="#262626" d="M8.192 15.385C4.227 15.385 1 12.158 1 8.192 1 4.227 4.227 1 8.192 1c3.966 0 7.193 3.227 7.193 7.192 0 3.966-3.228 7.193-7.193 7.193zm0-13.278a6.092 6.092 0 0 0-6.085 6.085 6.092 6.092 0 0 0 6.085 6.086 6.092 6.092 0 0 0 6.086-6.086 6.092 6.092 0 0 0-6.086-6.085z"/>
        <path fill="#262626" d="M12.595 13.237l.748-.748 9.273 9.273-.748.748z"/>
        <path fill="#262626" d="M13.859 15.355l1.495-1.495 7.48 7.479-1.496 1.495z"/>
        <path fill="#EF4A02" d="M14.384 16.368l2.104-2.084.744.751-2.104 2.085zM19.884 21.868l2.104-2.084.744.751-2.104 2.085z"/>
    </g>
</svg>
